[
  {
    "description": "Não consegue né?",
    "video": "ak-VyQ-Jvzw",
    "start": 402,
    "end": 403
  },
  {
    "description": "Que é pra ver se você volta...",
    "video": "SxslVLpzBuo",
    "start": 62,
    "end": 65
  },
  {
    "description": "Hoje não, hoje sim!",
    "video": "AXj69n9OOuY",
    "start": 4.2,
    "end": 6.4
  },
  {
    "description": "O senhor é o novo sherife 02.",
    "video": "RS5mvJHPp4o",
    "start": 9,
    "end": 12
  },
  {
    "description": "Zelda merda, é com você...",
    "video": "zQXJBwrv9kM",
    "start": 21,
    "end": 23
  },
  {
    "description": "Toin toin toin...",
    "video": "hDMjHfyn_h4",
    "start": 43.5,
    "end": 45
  },
  {
    "description": "Serra comedor.",
    "video": "6ilV_hEfKnw",
    "start": 0,
    "end": 7
  },
  {
    "description": "Serra comedor, a revanche.",
    "video": "qrLVaGn94rM",
    "start": 24.5,
    "end": 30
  },
   {
    "description": "Para com essa porra desse esculacho!!",
    "video": "4gC8coW_X0k",
    "start": 0.7,
    "end": 4.3
  },
  {
    "description": "Acabo, acabô... É tetra!",
    "video": "UAMMY7wYLvU",
    "start": 2,
    "end": 16
  }

]